SPI/simulation/qsim/SPI.msim.vcd
$comment
	File created using the following command:
		vcd file SPI.msim.vcd -direction
$end
$date
	Wed Dec 04 10:10:49 2019
$end
$version
	ModelSim Version 10.1d
$end
$timescale
	1ps
$end
$scope module SPI_vlg_vec_tst $end
$var reg 1 ! clk $end
$var reg 9 " i_data [8:0] $end
$var reg 1 # miso $end
$var wire 1 $ cs $end
$var wire 1 % mosi $end
$var wire 1 & o_data [8] $end
$var wire 1 ' o_data [7] $end
$var wire 1 ( o_data [6] $end
$var wire 1 ) o_data [5] $end
$var wire 1 * o_data [4] $end
$var wire 1 + o_data [3] $end
$var wire 1 , o_data [2] $end
$var wire 1 - o_data [1] $end
$var wire 1 . o_data [0] $end
$var wire 1 / sclk $end
$var wire 1 0 sampler $end
$scope module i1 $end
$var wire 1 1 gnd $end
$var wire 1 2 vcc $end
$var wire 1 3 unknown $end
$var tri1 1 4 devclrn $end
$var tri1 1 5 devpor $end
$var tri1 1 6 devoe $end
$upscope $end
$upscope $end
$enddefinitions $end
#0
$dumpvars
0!
bx "
0#
0$
0%
0.
0-
0,
0+
0*
0)
0(
0'
0&
1/
x0
01
12
x3
14
15
16
$end
#10000
1!
00
#20000
0!
10
#30000
1!
00
#40000
0!
10
#50000
1!
00
#60000
0!
10
#70000
1!
00
#80000
0!
10
#90000
1!
00
#100000
0!
10
#110000
1!
00
#120000
0!
10
#130000
1!
00
#140000
0!
10
#150000
1!
00
#160000
0!
10
#170000
1!
00
#180000
0!
10
#190000
1!
00
#200000
0!
10
#210000
1!
00
#220000
0!
10
#230000
1!
00
#240000
0!
10
#250000
1!
00
#260000
0!
10
#270000
1!
00
#280000
0!
10
#290000
1!
00
#300000
0!
10
#310000
1!
00
#320000
0!
10
#330000
1!
00
#340000
0!
10
#350000
1!
00
#360000
0!
10
#370000
1!
00
#380000
0!
10
#390000
1!
00
#400000
0!
10
#410000
1!
00
#420000
0!
10
#430000
1!
00
#440000
0!
10
#450000
1!
00
#460000
0!
10
#470000
1!
00
#480000
0!
10
#490000
1!
00
#500000
0!
10
#510000
1!
00
#520000
0!
10
#530000
1!
00
#540000
0!
10
#550000
1!
00
#560000
0!
10
#570000
1!
00
#580000
0!
10
#590000
1!
00
#600000
0!
10
#610000
1!
00
#620000
0!
10
#630000
1!
00
#640000
0!
10
#650000
1!
00
#660000
0!
10
#670000
1!
00
#680000
0!
10
#690000
1!
00
#700000
0!
10
#710000
1!
00
#720000
0!
10
#730000
1!
00
#740000
0!
10
#750000
1!
00
#760000
0!
10
#770000
1!
00
#780000
0!
10
#790000
1!
00
#800000
0!
10
#810000
1!
00
#820000
0!
10
#830000
1!
00
#840000
0!
10
#850000
1!
00
#860000
0!
10
#870000
1!
00
#880000
0!
10
#890000
1!
00
#900000
0!
10
#910000
1!
00
#920000
0!
10
#930000
1!
00
#940000
0!
10
#950000
1!
00
#960000
0!
10
#970000
1!
00
#980000
0!
10
#990000
1!
00
#1000000
0!
10
#1010000
1!
00
#1020000
0!
10
#1030000
1!
00
#1040000
0!
10
#1050000
1!
00
#1060000
0!
10
#1070000
1!
00
#1080000
0!
10
#1090000
1!
00
#1100000
0!
10
#1110000
1!
00
#1120000
0!
10
#1130000
1!
00
#1140000
0!
10
#1150000
1!
00
#1160000
0!
10
#1170000
1!
00
#1180000
0!
10
#1190000
1!
00
#1200000
0!
10
#1210000
1!
00
#1220000
0!
10
#1230000
1!
00
#1240000
0!
10
#1250000
1!
00
#1260000
0!
10
#1270000
1!
00
#1280000
0!
10
#1290000
1!
00
#1300000
0!
10
#1310000
1!
00
#1320000
0!
10
#1330000
1!
00
#1340000
0!
10
#1350000
1!
00
#1360000
0!
10
#1370000
1!
00
#1380000
0!
10
#1390000
1!
00
#1400000
0!
10
#1410000
1!
00
#1420000
0!
10
#1430000
1!
00
#1440000
0!
10
#1450000
1!
00
#1460000
0!
10
#1470000
1!
00
#1480000
0!
10
#1490000
1!
00
#1500000
0!
10
#1510000
1!
00
#1520000
0!
10
#1530000
1!
00
#1540000
0!
10
#1550000
1!
00
#1560000
0!
10
#1570000
1!
00
#1580000
0!
10
#1590000
1!
00
#1600000
0!
10
#1610000
1!
00
#1620000
0!
10
#1630000
1!
00
#1640000
0!
10
#1650000
1!
00
#1660000
0!
10
#1670000
1!
00
#1680000
0!
10
#1690000
1!
00
#1700000
0!
10
#1710000
1!
00
#1720000
0!
10
#1730000
1!
00
#1740000
0!
10
#1750000
1!
00
#1760000
0!
10
#1770000
1!
00
#1780000
0!
10
#1790000
1!
00
#1800000
0!
10
#1810000
1!
00
#1820000
0!
10
#1830000
1!
00
#1840000
0!
10
#1850000
1!
00
#1860000
0!
10
#1870000
1!
00
#1880000
0!
10
#1890000
1!
00
#1900000
0!
10
#1910000
1!
00
#1920000
0!
10
#1930000
1!
00
#1940000
0!
10
#1950000
1!
00
#1960000
0!
10
#1970000
1!
00
#1980000
0!
10
#1990000
1!
00
#2000000
0!
10
#2010000
1!
00
#2020000
0!
10
#2030000
1!
00
#2040000
0!
10
#2050000
1!
00
#2060000
0!
10
#2070000
1!
00
#2080000
0!
10
#2090000
1!
00
#2100000
0!
10
#2110000
1!
00
#2120000
0!
10
#2130000
1!
00
#2140000
0!
10
#2150000
1!
00
#2160000
0!
10
#2170000
1!
00
#2180000
0!
10
#2190000
1!
00
#2200000
0!
10
#2210000
1!
00
#2220000
0!
10
#2230000
1!
00
#2240000
0!
10
#2250000
1!
00
#2260000
0!
10
#2270000
1!
00
#2280000
0!
10
#2290000
1!
00
#2300000
0!
10
#2310000
1!
00
#2320000
0!
10
#2330000
1!
00
#2340000
0!
10
#2350000
1!
00
#2360000
0!
10
#2370000
1!
00
#2380000
0!
10
#2390000
1!
00
#2400000
0!
10
#2410000
1!
00
#2420000
0!
10
#2430000
1!
00
#2440000
0!
10
#2450000
1!
00
#2460000
0!
10
#2470000
1!
00
#2480000
0!
10
#2490000
1!
00
#2500000
0!
10
#2510000
1!
00
#2520000
0!
10
#2530000
1!
00
#2540000
0!
10
#2550000
1!
00
#2560000
0!
10
#2570000
1!
00
#2580000
0!
10
#2590000
1!
00
#2600000
0!
10
#2610000
1!
00
#2620000
0!
10
#2630000
1!
00
#2640000
0!
10
#2650000
1!
00
#2660000
0!
10
#2670000
1!
00
#2680000
0!
10
#2690000
1!
00
#2700000
0!
10
#2710000
1!
00
#2720000
0!
10
#2730000
1!
00
#2740000
0!
10
#2750000
1!
00
#2760000
0!
10
#2770000
1!
00
#2780000
0!
10
#2790000
1!
00
#2800000
0!
10
#2810000
1!
00
#2820000
0!
10
#2830000
1!
00
#2840000
0!
10
#2850000
1!
00
#2860000
0!
10
#2870000
1!
00
#2880000
0!
10
#2890000
1!
00
#2900000
0!
10
#2910000
1!
00
#2920000
0!
10
#2930000
1!
00
#2940000
0!
10
#2950000
1!
00
#2960000
0!
10
#2970000
1!
00
#2980000
0!
10
#2990000
1!
00
#3000000
0!
10
#3010000
1!
00
#3020000
0!
10
#3030000
1!
00
#3040000
0!
10
#3050000
1!
00
#3060000
0!
10
#3070000
1!
00
#3080000
0!
10
#3090000
1!
00
#3100000
0!
10
#3110000
1!
00
#3120000
0!
10
#3130000
1!
00
#3140000
0!
10
#3150000
1!
00
#3160000
0!
10
#3170000
1!
00
#3180000
0!
10
#3190000
1!
00
#3200000
0!
10
#3210000
1!
00
#3220000
0!
10
#3230000
1!
00
#3240000
0!
10
#3250000
1!
00
#3260000
0!
10
#3270000
1!
00
#3280000
0!
10
#3290000
1!
00
#3300000
0!
10
#3310000
1!
00
#3320000
0!
10
#3330000
1!
00
#3340000
0!
10
#3350000
1!
00
#3360000
0!
10
#3370000
1!
00
#3380000
0!
10
#3390000
1!
00
#3400000
0!
10
#3410000
1!
00
#3420000
0!
10
#3430000
1!
00
#3440000
0!
10
#3450000
1!
00
#3460000
0!
10
#3470000
1!
00
#3480000
0!
10
#3490000
1!
00
#3500000
0!
10
#3510000
1!
00
#3520000
0!
10
#3530000
1!
00
#3540000
0!
10
#3550000
1!
00
#3560000
0!
10
#3570000
1!
00
#3580000
0!
10
#3590000
1!
00
#3600000
0!
10
#3610000
1!
00
#3620000
0!
10
#3630000
1!
00
#3640000
0!
10
#3650000
1!
00
#3660000
0!
10
#3670000
1!
00
#3680000
0!
10
#3690000
1!
00
#3700000
0!
10
#3710000
1!
00
#3720000
0!
10
#3730000
1!
00
#3740000
0!
10
#3750000
1!
00
#3760000
0!
10
#3770000
1!
00
#3780000
0!
10
#3790000
1!
00
#3800000
0!
10
#3810000
1!
00
#3820000
0!
10
#3830000
1!
00
#3840000
0!
10
#3850000
1!
00
#3860000
0!
10
#3870000
1!
00
#3880000
0!
10
#3890000
1!
00
#3900000
0!
10
#3910000
1!
00
#3920000
0!
10
#3930000
1!
00
#3940000
0!
10
#3950000
1!
00
#3960000
0!
10
#3970000
1!
00
#3980000
0!
10
#3990000
1!
00
#4000000
0!
10
#4010000
1!
00
#4020000
0!
10
#4030000
1!
00
#4040000
0!
10
#4050000
1!
00
#4060000
0!
10
#4070000
1!
00
#4080000
0!
10
#4090000
1!
00
#4100000
0!
10
#4110000
1!
00
#4120000
0!
10
#4130000
1!
00
#4140000
0!
10
#4150000
1!
00
#4160000
0!
10
#4170000
1!
00
#4180000
0!
10
#4190000
1!
00
#4200000
0!
10
#4210000
1!
00
#4220000
0!
10
#4230000
1!
00
#4240000
0!
10
#4250000
1!
00
#4260000
0!
10
#4270000
1!
00
#4280000
0!
10
#4290000
1!
00
#4300000
0!
10
#4310000
1!
00
#4320000
0!
10
#4330000
1!
00
#4340000
0!
10
#4350000
1!
00
#4360000
0!
10
#4370000
1!
00
#4380000
0!
10
#4390000
1!
00
#4400000
0!
10
#4410000
1!
00
#4420000
0!
10
#4430000
1!
00
#4440000
0!
10
#4450000
1!
00
#4460000
0!
10
#4470000
1!
00
#4480000
0!
10
#4490000
1!
00
#4500000
0!
10
#4510000
1!
00
#4520000
0!
10
#4530000
1!
00
#4540000
0!
10
#4550000
1!
00
#4560000
0!
10
#4570000
1!
00
#4580000
0!
10
#4590000
1!
00
#4600000
0!
10
#4610000
1!
00
#4620000
0!
10
#4630000
1!
00
#4640000
0!
10
#4650000
1!
00
#4660000
0!
10
#4670000
1!
00
#4680000
0!
10
#4690000
1!
00
#4700000
0!
10
#4710000
1!
00
#4720000
0!
10
#4730000
1!
00
#4740000
0!
10
#4750000
1!
00
#4760000
0!
10
#4770000
1!
00
#4780000
0!
10
#4790000
1!
00
#4800000
0!
10
#4810000
1!
00
#4820000
0!
10
#4830000
1!
00
#4840000
0!
10
#4850000
1!
00
#4860000
0!
10
#4870000
1!
00
#4880000
0!
10
#4890000
1!
00
#4900000
0!
10
#4910000
1!
00
#4920000
0!
10
#4930000
1!
00
#4940000
0!
10
#4950000
1!
00
#4960000
0!
10
#4970000
1!
00
#4980000
0!
10
#4990000
1!
00
